{
    "title": "Events",
    "model": "TimetableEvents",
    "searchExpression": "(indexof(name, '${text}') ge 0) or (day(startDate) eq ${/^\\d+$/.test(text) ? text : 0}) or (indexof(description, '${text}') ge 0)",
    "selectable": true,
    "defaults": {
        "orderBy": "startDate desc",
        "filter": "organizer eq ${currentDepartment} and eventStatus/alternateName eq 'EventOpened'"
    },
    "multipleSelect": true,
    "columns": [
        {
            "name": "id",
            "property": "id",
            "formatter": "ActionLinkFormatter",
            "actions": [
                {
                    "title": "TimetableEvents.Preview",
                    "formatOptions": {
                        "commands": [
                            "../../",
                            "${id}",
                            "dashboard"
                        ]
                    }
                },
                {
                    "title": "TimetableEvents.Edit",
                    "formatOptions": {
                        "commands": [
                            "../../",
                            "${id}",
                            "edit"
                        ]
                    }
                },
                {
                    "title": "TimetableEvents.Copy",
                    "formatOptions": {
                        "commands": [
                            "../../",
                            "${id}",
                            "dashboard",
                            "overview",
                            "copy"
                        ]
                    }
                }
            ],
            "sortable": false
        },
        {
            "name": "startDate",
            "property": "startDate",
            "title": "From",
            "formatter": "DateTimeFormatter",
            "formatString": "shortDate"
        },
        {
            "title": "To",
            "name": "endDate",
            "property": "endDate",
            "formatter": "DateTimeFormatter",
            "formatString": "shortDate"
        },
        {
            "name": "name",
            "property": "name",
            "title": "Title"
        },
        {
            "name": "description",
            "property": "description",
            "title": "Description"
        },
        {
            "name": "eventStatus/name",
            "property": "eventStatus",
            "formatter": "StatusFormatter",
            "title": "Status"
        }
    ],
    "searches": [],
    "paths": [
        {
            "name": "TimetableEvents.Open",
            "alternateName": "list/open",
            "show": true,
            "filter": {
                "status": "1"
            }
        },
        {
            "name": "TimetableEvents.All",
            "alternateName": "list/all",
            "show": true,
            "filter": {
                "status": "0"
            }
        }
    ],
    "criteria": [
        {
            "name": "eventName",
            "filter": "(indexof(name, '${value}') ge 0)",
            "type": "text"
        },
        {
            "name": "sections",
            "filter": "(sections/section eq ${value})",
            "type": "text"
        },
        {
            "name": "minDate",
            "filter": "(startDate ge '${new Date(value).toISOString()}')",
            "type": "text"
        },
        {
            "name": "maxDate",
            "filter": "(startDate le '${new Date(value).toISOString()}')",
            "type": "text"
        },
        {
            "name": "status",
            "filter": "(eventStatus eq '${value}')",
            "type": "text"
        }
    ]
}